{
    "type": "postgres",
    "host": "localhost",
    "port": "5432",
    "username": "squidy",
    "password": "squidy",
    "database": "squidysmil",
    "entities": [ "./entity/*.@(js|ts)" ],
    "subscribers": ["./subscriber/*.@(js|ts)"],
    "logging": false,
    "migrationsTableName": "migrations",
    "migrations": ["docs/db_migrations/*.ts"],
    "cli": {
        "entitiesDir": "./entity",
        "subscribersDir": "./subscriber",
        "migrationsDir": "docs/db_migrations"
    },
    "useUnifiedTopology": true
}